제 4 장 데이터 다루기 | R 을 이용한 데이터 과학 입문
…
4.10 group_by() 와 summarise()

통계분석에서 범주(categorical variable)에 따라 자료의 요약을 하는 것은 매우 흔한 일이다. group_by() 함수는 자료를 선택된 범주형 변수에 의하여 묶어주는 기능을 하며 group_by() 함수는 특별한 결과를 생성하지 않고 자료(dataframe)에 그룹에 대한 정보를 저장한다.

group_by() 에 의하여 그룹이 생성된 자료(dataframe)에 summarise()를 이용하여 통계 함수를 적용하면 지정된 그룹별로 요약 통계량이 기술된다.

다음의 예는 hflight 자료에서 도착공항별(Dest)로 도착이 지연된 시간(ArrDelay)의 평균을 구하는 명령어이다.

groupdata <- group_by(hflights, Dest)
summarise(groupdata, avg_delay = mean(ArrDelay, na.rm=TRUE))

## # A tibble: 116 × 2
##    Dest  avg_delay
##    <chr>     <dbl>
##  1 ABQ        7.23
##  2 AEX        5.84
##  3 AGS        4   
##  4 AMA        6.84
##  5 ANC       26.1 
##  6 ASE        6.79
##  7 ATL        8.23
##  8 AUS        7.45
##  9 AVL        9.97
## 10 BFL      -13.2 
## # … with 106 more rows

위의 명령어는 다음 명령어와 같은 결과를 준다.

hflights %>%
    group_by(Dest) %>%
     summarise(avg_delay = mean(ArrDelay, na.rm=TRUE))

## # A tibble: 116 × 2
##    Dest  avg_delay
##    <chr>     <dbl>
##  1 ABQ        7.23
##  2 AEX        5.84
##  3 AGS        4   
##  4 AMA        6.84
##  5 ANC       26.1 
##  6 ASE        6.79
##  7 ATL        8.23
##  8 AUS        7.45
##  9 AVL        9.97
## 10 BFL      -13.2 
## # … with 106 more rows
…
summarise(hflights,avg_delay = mean(ArrDelay, na.rm=TRUE))

##   avg_delay
## 1  7.094334

또한 다음과 같이 여러 개의 통계량을 동시에 구할 수 있다.

groupdata <- group_by(hflights, Dest)
summarise(groupdata, avg_delay = mean(ArrDelay, na.rm=TRUE), 
  count = n(),
  dist = mean(Distance, na.rm = TRUE),
  delay = mean(ArrDelay, na.rm = TRUE))

## # A tibble: 116 × 5
##    Dest  avg_delay count  dist  delay
##    <chr>     <dbl> <int> <dbl>  <dbl>
##  1 ABQ        7.23  2812  749.   7.23
##  2 AEX        5.84   724  190    5.84
##  3 AGS        4        1  821    4   
##  4 AMA        6.84  1297  518.   6.84
##  5 ANC       26.1    125 3266   26.1 
##  6 ASE        6.79   125  914.   6.79
##  7 ATL        8.23  7886  692.   8.23
##  8 AUS        7.45  5022  143.   7.45
##  9 AVL        9.97   350  834    9.97
## 10 BFL      -13.2    504 1428  -13.2 
## # … with 106 more rows
…
## Warning: `funs()` was deprecated in dplyr 0.8.0.
## Please use a list of either functions or lambdas: 
## 
##   # Simple named list: 
##   list(mean = mean, median = median)
## 
##   # Auto named with `tibble::lst()`: 
##   tibble::lst(mean, median)
## 
##   # Using lambdas
##   list(~ mean(., trim = .2), ~ median(., na.rm = TRUE))
## This warning is displayed once every 8 hours.
## Call `lifecycle::last_lifecycle_warnings()` to see where this warning was generated.

## # A tibble: 116 × 7
##    Dest  ArrDelay_mean DepDelay_mean ArrDelay_min DepDelay_min ArrDelay_max
##    <chr>         <dbl>         <dbl>        <int>        <int>        <int>
##  1 ABQ            7.23          8.48          -26          -14          290
##  2 AEX            5.84          6.38          -34          -17          257
##  3 AGS            4            10               4           10            4
##  4 AMA            6.84          6.70          -28          -13          301
##  5 ANC           26.1          25.0           -21           -6          281
##  6 ASE            6.79         16.0           -31          -33          252
##  7 ATL            8.23         10.3           -41          -17          701
##  8 AUS            7.45          8.42          -24          -15          244
##  9 AVL            9.97          8.90          -23          -10          331
## 10 BFL          -13.2           5.06          -56          -13          206
## # … with 106 more rows, and 1 more variable: DepDelay_max <int>
…
