제 5 장 외부자료 | R 을 이용한 데이터 과학 입문
…
5.3.1 working directory 지정

이제 test.xlsx 엑셀 화일을 원하는 디렉토리에 저장한다.

화일을 저장한 디렉토리를 working directory로 지정해 주어야 한다. Rstudio 메뉴에서 session을 선택하면 set working directory 메뉴가 있다. choose directory를 선택하고 test.xlsx 엑셀 화일을 저장한 디렉토리를 지정해 준다.

5.3.2 엑셀 화일의 입력

test.xlsx 엑셀 화일의 자료를 데이터프레임 seoulpop01 에 저장해 주려면 다음과 같은 명령어를 실행한다.

seoulpop01 <- read_excel("./data/test.xlsx", col_names = TRUE)
seoulpop01

## # A tibble: 130 × 5
##    year  name       house      pop   old65
##    <chr> <chr>      <dbl>    <dbl>   <dbl>
##  1 2014  합계     4194176 10369593 1221616
##  2 2014  종로구     73101   165344   24537
##  3 2014  중구       59960   136227   19960
##  4 2014  용산구    108429   249914   34896
##  5 2014  성동구    125814   303891   36684
##  6 2014  광진구    158524   377375   38974
##  7 2014  동대문구  159880   376319   50915
##  8 2014  중랑구    176714   423411   51995
##  9 2014  성북구    193359   475961   62066
## 10 2014  강북구    141246   338410   50841
## # … with 120 more rows
…
